Wh:-2 St:1 Se:1 Sl:1 419.345 65.3531
Wh:-2 St:1 Se:1 Sl:3 442.845 63.2681
Wh:-2 St:1 Se:2 Sl:1 419.387 65.3811
Wh:-2 St:1 Se:2 Sl:3 442.887 63.2751
Wh:-2 St:1 Se:3 Sl:1 419.542 65.3731
Wh:-2 St:1 Se:3 Sl:3 443.042 63.2601
Wh:-2 St:1 Se:4 Sl:1 419.611 65.3781
Wh:-2 St:1 Se:4 Sl:3 443.111 63.2661
Wh:-2 St:1 Se:5 Sl:1 419.423 65.3981
Wh:-2 St:1 Se:5 Sl:3 442.923 63.2941
Wh:-2 St:1 Se:6 Sl:1 419.51 65.3961
Wh:-2 St:1 Se:6 Sl:3 443.01 63.2971
Wh:-2 St:1 Se:7 Sl:1 419.287 65.3981
Wh:-2 St:1 Se:7 Sl:3 442.787 63.2971
Wh:-2 St:1 Se:8 Sl:1 419.508 65.3861
Wh:-2 St:1 Se:8 Sl:3 443.008 63.2881
Wh:-2 St:1 Se:9 Sl:1 419.473 65.4171
Wh:-2 St:1 Se:9 Sl:3 442.973 63.3171
Wh:-2 St:1 Se:10 Sl:1 419.344 65.3861
Wh:-2 St:1 Se:10 Sl:3 442.844 63.2861
Wh:-2 St:1 Se:11 Sl:1 419.356 65.3821
Wh:-2 St:1 Se:11 Sl:3 442.856 63.2821
Wh:-2 St:1 Se:12 Sl:1 419.422 65.3441
Wh:-2 St:1 Se:12 Sl:3 442.922 63.2581
Wh:-2 St:2 Se:1 Sl:1 500.696 142.954
Wh:-2 St:2 Se:1 Sl:3 524.196 147.151
Wh:-2 St:2 Se:2 Sl:1 500.798 142.973
Wh:-2 St:2 Se:2 Sl:3 524.298 147.173
Wh:-2 St:2 Se:3 Sl:1 500.747 142.992
Wh:-2 St:2 Se:3 Sl:3 524.247 147.189
Wh:-2 St:2 Se:4 Sl:1 500.799 142.978
Wh:-2 St:2 Se:4 Sl:3 524.299 147.187
Wh:-2 St:2 Se:5 Sl:1 500.699 142.998
Wh:-2 St:2 Se:5 Sl:3 524.199 147.197
Wh:-2 St:2 Se:6 Sl:1 500.754 143.016
Wh:-2 St:2 Se:6 Sl:3 524.254 147.199
Wh:-2 St:2 Se:7 Sl:1 500.593 143.008
Wh:-2 St:2 Se:7 Sl:3 524.093 147.212
Wh:-2 St:2 Se:8 Sl:1 500.628 142.991
Wh:-2 St:2 Se:8 Sl:3 524.128 147.191
Wh:-2 St:2 Se:9 Sl:1 500.623 142.998
Wh:-2 St:2 Se:9 Sl:3 524.122 147.213
Wh:-2 St:2 Se:10 Sl:1 500.843 142.998
Wh:-2 St:2 Se:10 Sl:3 524.343 147.2
Wh:-2 St:2 Se:11 Sl:1 500.675 142.946
Wh:-2 St:2 Se:11 Sl:3 524.175 147.154
Wh:-2 St:2 Se:12 Sl:1 500.66 142.961
Wh:-2 St:2 Se:12 Sl:3 524.16 147.155
Wh:-2 St:3 Se:1 Sl:1 607.844 129.547
Wh:-2 St:3 Se:1 Sl:3 631.344 129.535
Wh:-2 St:3 Se:2 Sl:1 607.961 129.553
Wh:-2 St:3 Se:2 Sl:3 631.461 129.557
Wh:-2 St:3 Se:3 Sl:1 607.979 129.582
Wh:-2 St:3 Se:3 Sl:3 631.479 129.57
Wh:-2 St:3 Se:4 Sl:1 607.915 129.577
Wh:-2 St:3 Se:4 Sl:3 631.415 129.587
Wh:-2 St:3 Se:5 Sl:1 607.774 129.584
Wh:-2 St:3 Se:5 Sl:3 631.274 129.584
Wh:-2 St:3 Se:6 Sl:1 607.798 129.609
Wh:-2 St:3 Se:6 Sl:3 631.298 129.6
Wh:-2 St:3 Se:7 Sl:1 607.893 129.605
Wh:-2 St:3 Se:7 Sl:3 631.393 129.612
Wh:-2 St:3 Se:8 Sl:1 608.082 129.585
Wh:-2 St:3 Se:8 Sl:3 631.582 129.595
Wh:-2 St:3 Se:9 Sl:1 607.949 129.589
Wh:-2 St:3 Se:9 Sl:3 631.449 129.603
Wh:-2 St:3 Se:10 Sl:1 607.891 129.59
Wh:-2 St:3 Se:10 Sl:3 631.391 129.587
Wh:-2 St:3 Se:11 Sl:1 607.855 129.532
Wh:-2 St:3 Se:11 Sl:3 631.355 129.536
Wh:-2 St:3 Se:12 Sl:1 608.016 129.54
Wh:-2 St:3 Se:12 Sl:3 631.516 129.536
Wh:-2 St:4 Se:1 Sl:1 710.235 291.206
Wh:-2 St:4 Se:1 Sl:3 733.735 299.615
Wh:-2 St:4 Se:2 Sl:1 710.184 291.204
Wh:-2 St:4 Se:2 Sl:3 733.684 299.6
Wh:-2 St:4 Se:3 Sl:1 710.246 291.271
Wh:-2 St:4 Se:3 Sl:3 733.746 299.658
Wh:-2 St:4 Se:4 Sl:1 710.318 310.902
Wh:-2 St:4 Se:4 Sl:3 733.818 310.909
Wh:-2 St:4 Se:13 Sl:1 710.444 -10.5899
Wh:-2 St:4 Se:13 Sl:3 733.944 -10.5989
Wh:-2 St:4 Se:5 Sl:1 710.223 109.867
Wh:-2 St:4 Se:5 Sl:3 733.723 101.477
Wh:-2 St:4 Se:6 Sl:1 710.118 109.922
Wh:-2 St:4 Se:6 Sl:3 733.618 101.525
Wh:-2 St:4 Se:7 Sl:1 710.258 109.869
Wh:-2 St:4 Se:7 Sl:3 733.758 101.471
Wh:-2 St:4 Se:8 Sl:1 710.266 109.908
Wh:-2 St:4 Se:8 Sl:3 733.766 101.497
Wh:-2 St:4 Se:9 Sl:1 712.671 93.794
Wh:-2 St:4 Se:9 Sl:3 736.171 93.804
Wh:-2 St:4 Se:10 Sl:1 710.126 259.65
Wh:-2 St:4 Se:10 Sl:3 733.626 263.842
Wh:-2 St:4 Se:14 Sl:1 710.211 -9.69294
Wh:-2 St:4 Se:14 Sl:3 733.711 -13.9019
Wh:-2 St:4 Se:11 Sl:1 712.636 105.712
Wh:-2 St:4 Se:11 Sl:3 736.136 105.705
Wh:-2 St:4 Se:12 Sl:1 710.188 274.395
Wh:-2 St:4 Se:12 Sl:3 733.688 282.793
Wh:-1 St:1 Se:1 Sl:1 419.418 65.3811
Wh:-1 St:1 Se:1 Sl:3 442.918 63.2611
Wh:-1 St:1 Se:2 Sl:1 419.45 65.3711
Wh:-1 St:1 Se:2 Sl:3 442.95 63.2631
Wh:-1 St:1 Se:3 Sl:1 419.45 65.3811
Wh:-1 St:1 Se:3 Sl:3 442.95 63.2801
Wh:-1 St:1 Se:4 Sl:1 419.538 65.3731
Wh:-1 St:1 Se:4 Sl:3 443.038 63.2771
Wh:-1 St:1 Se:5 Sl:1 419.451 65.3821
Wh:-1 St:1 Se:5 Sl:3 442.951 63.2991
Wh:-1 St:1 Se:6 Sl:1 419.363 65.4031
Wh:-1 St:1 Se:6 Sl:3 442.863 63.3061
Wh:-1 St:1 Se:7 Sl:1 419.411 65.4061
Wh:-1 St:1 Se:7 Sl:3 442.911 63.2921
Wh:-1 St:1 Se:8 Sl:1 419.294 65.3991
Wh:-1 St:1 Se:8 Sl:3 442.794 63.3151
Wh:-1 St:1 Se:9 Sl:1 419.512 65.3891
Wh:-1 St:1 Se:9 Sl:3 443.012 63.2951
Wh:-1 St:1 Se:10 Sl:1 419.387 65.3821
Wh:-1 St:1 Se:10 Sl:3 442.886 63.2891
Wh:-1 St:1 Se:11 Sl:1 419.551 65.3671
Wh:-1 St:1 Se:11 Sl:3 443.051 63.2461
Wh:-1 St:1 Se:12 Sl:1 419.519 65.3431
Wh:-1 St:1 Se:12 Sl:3 443.02 63.2461
Wh:-1 St:2 Se:1 Sl:1 500.589 142.971
Wh:-1 St:2 Se:1 Sl:3 524.089 147.153
Wh:-1 St:2 Se:2 Sl:1 500.72 142.961
Wh:-1 St:2 Se:2 Sl:3 524.22 147.165
Wh:-1 St:2 Se:3 Sl:1 500.829 142.986
Wh:-1 St:2 Se:3 Sl:3 524.329 147.184
Wh:-1 St:2 Se:4 Sl:1 500.625 142.977
Wh:-1 St:2 Se:4 Sl:3 524.125 147.179
Wh:-1 St:2 Se:5 Sl:1 500.563 142.989
Wh:-1 St:2 Se:5 Sl:3 524.063 147.191
Wh:-1 St:2 Se:6 Sl:1 500.844 143.017
Wh:-1 St:2 Se:6 Sl:3 524.344 147.204
Wh:-1 St:2 Se:7 Sl:1 500.63 143.001
Wh:-1 St:2 Se:7 Sl:3 524.13 147.198
Wh:-1 St:2 Se:8 Sl:1 500.783 143.012
Wh:-1 St:2 Se:8 Sl:3 524.283 147.21
Wh:-1 St:2 Se:9 Sl:1 500.652 143.022
Wh:-1 St:2 Se:9 Sl:3 524.152 147.199
Wh:-1 St:2 Se:10 Sl:1 500.771 142.999
Wh:-1 St:2 Se:10 Sl:3 524.271 147.19
Wh:-1 St:2 Se:11 Sl:1 500.716 142.953
Wh:-1 St:2 Se:11 Sl:3 524.216 147.158
Wh:-1 St:2 Se:12 Sl:1 500.738 142.967
Wh:-1 St:2 Se:12 Sl:3 524.238 147.143
Wh:-1 St:3 Se:1 Sl:1 607.827 129.559
Wh:-1 St:3 Se:1 Sl:3 631.327 129.555
Wh:-1 St:3 Se:2 Sl:1 608 129.543
Wh:-1 St:3 Se:2 Sl:3 631.5 129.543
Wh:-1 St:3 Se:3 Sl:1 607.797 129.551
Wh:-1 St:3 Se:3 Sl:3 631.297 129.566
Wh:-1 St:3 Se:4 Sl:1 608.047 129.57
Wh:-1 St:3 Se:4 Sl:3 631.547 129.569
Wh:-1 St:3 Se:5 Sl:1 607.953 129.598
Wh:-1 St:3 Se:5 Sl:3 631.453 129.601
Wh:-1 St:3 Se:6 Sl:1 608.135 129.581
Wh:-1 St:3 Se:6 Sl:3 631.635 129.585
Wh:-1 St:3 Se:7 Sl:1 607.72 129.595
Wh:-1 St:3 Se:7 Sl:3 631.22 129.596
Wh:-1 St:3 Se:8 Sl:1 607.883 129.614
Wh:-1 St:3 Se:8 Sl:3 631.383 129.607
Wh:-1 St:3 Se:9 Sl:1 607.969 129.59
Wh:-1 St:3 Se:9 Sl:3 631.469 129.592
Wh:-1 St:3 Se:10 Sl:1 608.019 129.573
Wh:-1 St:3 Se:10 Sl:3 631.519 129.568
Wh:-1 St:3 Se:11 Sl:1 607.866 129.55
Wh:-1 St:3 Se:11 Sl:3 631.366 129.547
Wh:-1 St:3 Se:12 Sl:1 607.891 129.53
Wh:-1 St:3 Se:12 Sl:3 631.391 129.538
Wh:-1 St:4 Se:1 Sl:1 710.073 291.198
Wh:-1 St:4 Se:1 Sl:3 733.573 299.599
Wh:-1 St:4 Se:2 Sl:1 710.356 291.221
Wh:-1 St:4 Se:2 Sl:3 733.856 299.622
Wh:-1 St:4 Se:3 Sl:1 710.144 291.214
Wh:-1 St:4 Se:3 Sl:3 733.644 299.619
Wh:-1 St:4 Se:4 Sl:1 710.016 310.862
Wh:-1 St:4 Se:4 Sl:3 733.516 310.844
Wh:-1 St:4 Se:13 Sl:1 710.318 -10.5839
Wh:-1 St:4 Se:13 Sl:3 733.818 -10.5939
Wh:-1 St:4 Se:5 Sl:1 710.513 109.9
Wh:-1 St:4 Se:5 Sl:3 734.013 101.483
Wh:-1 St:4 Se:6 Sl:1 710.225 109.872
Wh:-1 St:4 Se:6 Sl:3 733.724 101.48
Wh:-1 St:4 Se:7 Sl:1 710.164 109.915
Wh:-1 St:4 Se:7 Sl:3 733.664 101.506
Wh:-1 St:4 Se:8 Sl:1 710.324 109.866
Wh:-1 St:4 Se:8 Sl:3 733.824 101.475
Wh:-1 St:4 Se:9 Sl:1 712.731 93.787
Wh:-1 St:4 Se:9 Sl:3 736.231 93.799
Wh:-1 St:4 Se:10 Sl:1 710.282 259.65
Wh:-1 St:4 Se:10 Sl:3 733.782 263.846
Wh:-1 St:4 Se:14 Sl:1 710.113 -9.68694
Wh:-1 St:4 Se:14 Sl:3 733.613 -13.8839
Wh:-1 St:4 Se:11 Sl:1 712.715 105.702
Wh:-1 St:4 Se:11 Sl:3 736.215 105.703
Wh:-1 St:4 Se:12 Sl:1 710.236 274.403
Wh:-1 St:4 Se:12 Sl:3 733.736 282.806
Wh:0 St:1 Se:1 Sl:1 419.325 65.3481
Wh:0 St:1 Se:1 Sl:3 442.825 63.2691
Wh:0 St:1 Se:5 Sl:1 419.503 65.3721
Wh:0 St:1 Se:5 Sl:3 443.003 63.2691
Wh:0 St:1 Se:9 Sl:1 419.444 65.3921
Wh:0 St:1 Se:9 Sl:3 442.944 63.2881
Wh:0 St:1 Se:2 Sl:1 419.361 140.44
Wh:0 St:1 Se:2 Sl:3 442.861 142.523
Wh:0 St:1 Se:6 Sl:1 419.33 140.395
Wh:0 St:1 Se:6 Sl:3 442.83 142.495
Wh:0 St:1 Se:10 Sl:1 419.431 140.411
Wh:0 St:1 Se:10 Sl:3 442.931 142.527
Wh:0 St:1 Se:3 Sl:1 419.494 140.438
Wh:0 St:1 Se:3 Sl:3 442.994 142.539
Wh:0 St:1 Se:7 Sl:1 419.346 140.394
Wh:0 St:1 Se:7 Sl:3 442.846 142.49
Wh:0 St:1 Se:11 Sl:1 419.662 140.45
Wh:0 St:1 Se:11 Sl:3 443.162 142.559
Wh:0 St:1 Se:4 Sl:1 419.358 65.3861
Wh:0 St:1 Se:4 Sl:3 442.858 63.2861
Wh:0 St:1 Se:8 Sl:1 419.493 65.3931
Wh:0 St:1 Se:8 Sl:3 442.993 63.2921
Wh:0 St:1 Se:12 Sl:1 419.318 65.3641
Wh:0 St:1 Se:12 Sl:3 442.818 63.2661
Wh:0 St:2 Se:1 Sl:1 500.877 142.968
Wh:0 St:2 Se:1 Sl:3 524.377 147.168
Wh:0 St:2 Se:5 Sl:1 500.739 142.982
Wh:0 St:2 Se:5 Sl:3 524.239 147.168
Wh:0 St:2 Se:9 Sl:1 500.613 142.981
Wh:0 St:2 Se:9 Sl:3 524.113 147.188
Wh:0 St:2 Se:2 Sl:1 500.711 106.926
Wh:0 St:2 Se:2 Sl:3 524.211 102.737
Wh:0 St:2 Se:6 Sl:1 500.756 106.887
Wh:0 St:2 Se:6 Sl:3 524.256 102.701
Wh:0 St:2 Se:10 Sl:1 500.774 106.944
Wh:0 St:2 Se:10 Sl:3 524.274 102.725
Wh:0 St:2 Se:3 Sl:1 500.771 106.934
Wh:0 St:2 Se:3 Sl:3 524.271 102.728
Wh:0 St:2 Se:7 Sl:1 500.554 106.896
Wh:0 St:2 Se:7 Sl:3 524.054 102.694
Wh:0 St:2 Se:11 Sl:1 500.821 106.932
Wh:0 St:2 Se:11 Sl:3 524.321 102.734
Wh:0 St:2 Se:4 Sl:1 500.834 142.975
Wh:0 St:2 Se:4 Sl:3 524.334 147.185
Wh:0 St:2 Se:8 Sl:1 500.736 143.02
Wh:0 St:2 Se:8 Sl:3 524.236 147.206
Wh:0 St:2 Se:12 Sl:1 500.749 142.959
Wh:0 St:2 Se:12 Sl:3 524.249 147.149
Wh:0 St:3 Se:1 Sl:1 607.976 129.532
Wh:0 St:3 Se:1 Sl:3 631.476 129.536
Wh:0 St:3 Se:5 Sl:1 608.033 129.536
Wh:0 St:3 Se:5 Sl:3 631.533 129.557
Wh:0 St:3 Se:9 Sl:1 607.951 129.599
Wh:0 St:3 Se:9 Sl:3 631.451 129.584
Wh:0 St:3 Se:2 Sl:1 607.898 170.727
Wh:0 St:3 Se:2 Sl:3 631.398 170.728
Wh:0 St:3 Se:6 Sl:1 608.106 170.718
Wh:0 St:3 Se:6 Sl:3 631.605 170.705
Wh:0 St:3 Se:10 Sl:1 608.034 170.742
Wh:0 St:3 Se:10 Sl:3 631.534 170.735
Wh:0 St:3 Se:3 Sl:1 607.933 170.736
Wh:0 St:3 Se:3 Sl:3 631.432 170.747
Wh:0 St:3 Se:7 Sl:1 607.868 170.688
Wh:0 St:3 Se:7 Sl:3 631.368 170.695
Wh:0 St:3 Se:11 Sl:1 608.033 170.754
Wh:0 St:3 Se:11 Sl:3 631.533 170.772
Wh:0 St:3 Se:4 Sl:1 607.949 129.582
Wh:0 St:3 Se:4 Sl:3 631.449 129.572
Wh:0 St:3 Se:8 Sl:1 608.063 129.581
Wh:0 St:3 Se:8 Sl:3 631.563 129.586
Wh:0 St:3 Se:12 Sl:1 607.859 129.52
Wh:0 St:3 Se:12 Sl:3 631.359 129.535
Wh:0 St:4 Se:1 Sl:1 710.33 291.205
Wh:0 St:4 Se:1 Sl:3 733.83 299.618
Wh:0 St:4 Se:2 Sl:1 710.141 109.869
Wh:0 St:4 Se:2 Sl:3 733.641 101.485
Wh:0 St:4 Se:3 Sl:1 710.073 109.883
Wh:0 St:4 Se:3 Sl:3 733.573 101.485
Wh:0 St:4 Se:4 Sl:1 710.287 310.917
Wh:0 St:4 Se:4 Sl:3 733.787 310.909
Wh:0 St:4 Se:13 Sl:1 710.366 -10.5869
Wh:0 St:4 Se:13 Sl:3 733.866 -10.6049
Wh:0 St:4 Se:5 Sl:1 710.286 109.835
Wh:0 St:4 Se:5 Sl:3 733.786 101.441
Wh:0 St:4 Se:6 Sl:1 710.288 291.193
Wh:0 St:4 Se:6 Sl:3 733.788 299.597
Wh:0 St:4 Se:7 Sl:1 710.139 291.209
Wh:0 St:4 Se:7 Sl:3 733.639 299.593
Wh:0 St:4 Se:8 Sl:1 710.371 109.851
Wh:0 St:4 Se:8 Sl:3 733.871 101.465
Wh:0 St:4 Se:9 Sl:1 712.464 93.788
Wh:0 St:4 Se:9 Sl:3 735.964 93.784
Wh:0 St:4 Se:10 Sl:1 710.044 -9.72094
Wh:0 St:4 Se:10 Sl:3 733.544 -13.8919
Wh:0 St:4 Se:14 Sl:1 710.248 259.625
Wh:0 St:4 Se:14 Sl:3 733.748 263.83
Wh:0 St:4 Se:11 Sl:1 712.75 93.807
Wh:0 St:4 Se:11 Sl:3 736.25 93.802
Wh:0 St:4 Se:12 Sl:1 710.185 274.405
Wh:0 St:4 Se:12 Sl:3 733.685 282.804
Wh:1 St:1 Se:1 Sl:1 419.382 140.455
Wh:1 St:1 Se:1 Sl:3 442.882 142.542
Wh:1 St:1 Se:2 Sl:1 419.373 140.428
Wh:1 St:1 Se:2 Sl:3 442.873 142.536
Wh:1 St:1 Se:3 Sl:1 419.425 140.435
Wh:1 St:1 Se:3 Sl:3 442.925 142.533
Wh:1 St:1 Se:4 Sl:1 419.513 140.433
Wh:1 St:1 Se:4 Sl:3 443.013 142.537
Wh:1 St:1 Se:5 Sl:1 419.382 140.446
Wh:1 St:1 Se:5 Sl:3 442.882 142.546
Wh:1 St:1 Se:6 Sl:1 419.371 140.395
Wh:1 St:1 Se:6 Sl:3 442.871 142.493
Wh:1 St:1 Se:7 Sl:1 419.507 140.408
Wh:1 St:1 Se:7 Sl:3 443.007 142.504
Wh:1 St:1 Se:8 Sl:1 419.394 140.388
Wh:1 St:1 Se:8 Sl:3 442.894 142.498
Wh:1 St:1 Se:9 Sl:1 419.406 140.421
Wh:1 St:1 Se:9 Sl:3 442.906 142.514
Wh:1 St:1 Se:10 Sl:1 419.265 140.429
Wh:1 St:1 Se:10 Sl:3 442.765 142.504
Wh:1 St:1 Se:11 Sl:1 419.483 140.445
Wh:1 St:1 Se:11 Sl:3 442.983 142.533
Wh:1 St:1 Se:12 Sl:1 419.397 140.444
Wh:1 St:1 Se:12 Sl:3 442.897 142.539
Wh:1 St:2 Se:1 Sl:1 500.795 106.953
Wh:1 St:2 Se:1 Sl:3 524.295 102.753
Wh:1 St:2 Se:2 Sl:1 500.844 106.931
Wh:1 St:2 Se:2 Sl:3 524.344 102.74
Wh:1 St:2 Se:3 Sl:1 500.784 106.921
Wh:1 St:2 Se:3 Sl:3 524.284 102.733
Wh:1 St:2 Se:4 Sl:1 500.719 106.922
Wh:1 St:2 Se:4 Sl:3 524.219 102.725
Wh:1 St:2 Se:5 Sl:1 500.848 106.913
Wh:1 St:2 Se:5 Sl:3 524.348 102.706
Wh:1 St:2 Se:6 Sl:1 500.718 106.913
Wh:1 St:2 Se:6 Sl:3 524.218 102.69
Wh:1 St:2 Se:7 Sl:1 500.685 106.883
Wh:1 St:2 Se:7 Sl:3 524.185 102.687
Wh:1 St:2 Se:8 Sl:1 500.769 106.873
Wh:1 St:2 Se:8 Sl:3 524.269 102.693
Wh:1 St:2 Se:9 Sl:1 500.876 106.911
Wh:1 St:2 Se:9 Sl:3 524.376 102.704
Wh:1 St:2 Se:10 Sl:1 500.775 106.919
Wh:1 St:2 Se:10 Sl:3 524.275 102.71
Wh:1 St:2 Se:11 Sl:1 500.827 106.928
Wh:1 St:2 Se:11 Sl:3 524.327 102.727
Wh:1 St:2 Se:12 Sl:1 500.787 106.955
Wh:1 St:2 Se:12 Sl:3 524.287 102.748
Wh:1 St:3 Se:1 Sl:1 607.756 170.78
Wh:1 St:3 Se:1 Sl:3 631.256 170.775
Wh:1 St:3 Se:2 Sl:1 608.052 170.761
Wh:1 St:3 Se:2 Sl:3 631.552 170.746
Wh:1 St:3 Se:3 Sl:1 608.081 170.759
Wh:1 St:3 Se:3 Sl:3 631.581 170.752
Wh:1 St:3 Se:4 Sl:1 607.917 170.725
Wh:1 St:3 Se:4 Sl:3 631.417 170.733
Wh:1 St:3 Se:5 Sl:1 607.989 170.737
Wh:1 St:3 Se:5 Sl:3 631.489 170.725
Wh:1 St:3 Se:6 Sl:1 607.797 170.695
Wh:1 St:3 Se:6 Sl:3 631.297 170.688
Wh:1 St:3 Se:7 Sl:1 607.875 170.677
Wh:1 St:3 Se:7 Sl:3 631.375 170.685
Wh:1 St:3 Se:8 Sl:1 608.106 170.691
Wh:1 St:3 Se:8 Sl:3 631.606 170.709
Wh:1 St:3 Se:9 Sl:1 607.849 170.727
Wh:1 St:3 Se:9 Sl:3 631.349 170.713
Wh:1 St:3 Se:10 Sl:1 607.886 170.724
Wh:1 St:3 Se:10 Sl:3 631.386 170.719
Wh:1 St:3 Se:11 Sl:1 607.852 170.745
Wh:1 St:3 Se:11 Sl:3 631.352 170.748
Wh:1 St:3 Se:12 Sl:1 607.865 170.766
Wh:1 St:3 Se:12 Sl:3 631.365 170.772
Wh:1 St:4 Se:1 Sl:1 710.256 109.912
Wh:1 St:4 Se:1 Sl:3 733.756 101.519
Wh:1 St:4 Se:2 Sl:1 710.113 109.898
Wh:1 St:4 Se:2 Sl:3 733.613 101.506
Wh:1 St:4 Se:3 Sl:1 710.324 109.854
Wh:1 St:4 Se:3 Sl:3 733.824 101.452
Wh:1 St:4 Se:4 Sl:1 710.403 -10.6009
Wh:1 St:4 Se:4 Sl:3 733.903 -10.6089
Wh:1 St:4 Se:13 Sl:1 710.275 310.944
Wh:1 St:4 Se:13 Sl:3 733.775 310.964
Wh:1 St:4 Se:5 Sl:1 710.259 291.189
Wh:1 St:4 Se:5 Sl:3 733.759 299.593
Wh:1 St:4 Se:6 Sl:1 710.211 291.175
Wh:1 St:4 Se:6 Sl:3 733.711 299.584
Wh:1 St:4 Se:7 Sl:1 710.369 291.215
Wh:1 St:4 Se:7 Sl:3 733.869 299.613
Wh:1 St:4 Se:8 Sl:1 710.198 274.407
Wh:1 St:4 Se:8 Sl:3 733.698 282.805
Wh:1 St:4 Se:9 Sl:1 712.762 105.732
Wh:1 St:4 Se:9 Sl:3 736.262 105.727
Wh:1 St:4 Se:10 Sl:1 710.516 -9.75294
Wh:1 St:4 Se:10 Sl:3 734.016 -13.9669
Wh:1 St:4 Se:14 Sl:1 710.191 259.617
Wh:1 St:4 Se:14 Sl:3 733.691 263.809
Wh:1 St:4 Se:11 Sl:1 712.76 93.798
Wh:1 St:4 Se:11 Sl:3 736.26 93.803
Wh:1 St:4 Se:12 Sl:1 710.18 109.877
Wh:1 St:4 Se:12 Sl:3 733.68 101.49
Wh:2 St:1 Se:1 Sl:1 419.361 140.434
Wh:2 St:1 Se:1 Sl:3 442.861 142.521
Wh:2 St:1 Se:2 Sl:1 419.632 140.461
Wh:2 St:1 Se:2 Sl:3 443.132 142.558
Wh:2 St:1 Se:3 Sl:1 419.263 140.417
Wh:2 St:1 Se:3 Sl:3 442.763 142.513
Wh:2 St:1 Se:4 Sl:1 419.393 140.438
Wh:2 St:1 Se:4 Sl:3 442.893 142.528
Wh:2 St:1 Se:5 Sl:1 419.369 140.437
Wh:2 St:1 Se:5 Sl:3 442.869 142.53
Wh:2 St:1 Se:6 Sl:1 419.493 140.401
Wh:2 St:1 Se:6 Sl:3 442.993 142.5
Wh:2 St:1 Se:7 Sl:1 419.449 140.4
Wh:2 St:1 Se:7 Sl:3 442.949 142.507
Wh:2 St:1 Se:8 Sl:1 419.66 140.423
Wh:2 St:1 Se:8 Sl:3 443.16 142.524
Wh:2 St:1 Se:9 Sl:1 419.552 140.406
Wh:2 St:1 Se:9 Sl:3 443.052 142.52
Wh:2 St:1 Se:10 Sl:1 419.412 140.421
Wh:2 St:1 Se:10 Sl:3 442.912 142.533
Wh:2 St:1 Se:11 Sl:1 419.399 140.449
Wh:2 St:1 Se:11 Sl:3 442.899 142.55
Wh:2 St:1 Se:12 Sl:1 419.464 140.425
Wh:2 St:1 Se:12 Sl:3 442.964 142.537
Wh:2 St:2 Se:1 Sl:1 500.657 106.95
Wh:2 St:2 Se:1 Sl:3 524.157 102.744
Wh:2 St:2 Se:2 Sl:1 500.852 106.947
Wh:2 St:2 Se:2 Sl:3 524.352 102.735
Wh:2 St:2 Se:3 Sl:1 500.635 106.928
Wh:2 St:2 Se:3 Sl:3 524.135 102.732
Wh:2 St:2 Se:4 Sl:1 500.686 106.939
Wh:2 St:2 Se:4 Sl:3 524.186 102.752
Wh:2 St:2 Se:5 Sl:1 500.565 106.917
Wh:2 St:2 Se:5 Sl:3 524.065 102.727
Wh:2 St:2 Se:6 Sl:1 500.754 106.899
Wh:2 St:2 Se:6 Sl:3 524.254 102.686
Wh:2 St:2 Se:7 Sl:1 500.778 106.877
Wh:2 St:2 Se:7 Sl:3 524.277 102.686
Wh:2 St:2 Se:8 Sl:1 500.654 106.898
Wh:2 St:2 Se:8 Sl:3 524.154 102.697
Wh:2 St:2 Se:9 Sl:1 500.703 106.901
Wh:2 St:2 Se:9 Sl:3 524.203 102.696
Wh:2 St:2 Se:10 Sl:1 500.857 106.897
Wh:2 St:2 Se:10 Sl:3 524.357 102.715
Wh:2 St:2 Se:11 Sl:1 500.672 106.939
Wh:2 St:2 Se:11 Sl:3 524.172 102.728
Wh:2 St:2 Se:12 Sl:1 500.606 106.95
Wh:2 St:2 Se:12 Sl:3 524.106 102.739
Wh:2 St:3 Se:1 Sl:1 607.857 170.747
Wh:2 St:3 Se:1 Sl:3 631.357 170.771
Wh:2 St:3 Se:2 Sl:1 607.92 170.769
Wh:2 St:3 Se:2 Sl:3 631.42 170.765
Wh:2 St:3 Se:3 Sl:1 607.952 170.754
Wh:2 St:3 Se:3 Sl:3 631.452 170.762
Wh:2 St:3 Se:4 Sl:1 607.865 170.753
Wh:2 St:3 Se:4 Sl:3 631.365 170.756
Wh:2 St:3 Se:5 Sl:1 608.058 170.757
Wh:2 St:3 Se:5 Sl:3 631.558 170.767
Wh:2 St:3 Se:6 Sl:1 607.889 170.685
Wh:2 St:3 Se:6 Sl:3 631.389 170.69
Wh:2 St:3 Se:7 Sl:1 607.996 170.689
Wh:2 St:3 Se:7 Sl:3 631.496 170.689
Wh:2 St:3 Se:8 Sl:1 607.904 170.706
Wh:2 St:3 Se:8 Sl:3 631.404 170.693
Wh:2 St:3 Se:9 Sl:1 608.047 170.709
Wh:2 St:3 Se:9 Sl:3 631.547 170.722
Wh:2 St:3 Se:10 Sl:1 607.983 170.724
Wh:2 St:3 Se:10 Sl:3 631.483 170.733
Wh:2 St:3 Se:11 Sl:1 607.828 170.751
Wh:2 St:3 Se:11 Sl:3 631.328 170.741
Wh:2 St:3 Se:12 Sl:1 607.848 170.747
Wh:2 St:3 Se:12 Sl:3 631.348 170.756
Wh:2 St:4 Se:1 Sl:1 710.291 109.894
Wh:2 St:4 Se:1 Sl:3 733.791 101.494
Wh:2 St:4 Se:2 Sl:1 710.128 109.936
Wh:2 St:4 Se:2 Sl:3 733.628 101.53
Wh:2 St:4 Se:3 Sl:1 710.273 109.867
Wh:2 St:4 Se:3 Sl:3 733.773 101.474
Wh:2 St:4 Se:4 Sl:1 710.544 -10.6019
Wh:2 St:4 Se:4 Sl:3 734.044 -10.6169
Wh:2 St:4 Se:13 Sl:1 710.159 311.012
Wh:2 St:4 Se:13 Sl:3 733.659 311.008
Wh:2 St:4 Se:5 Sl:1 710.314 291.226
Wh:2 St:4 Se:5 Sl:3 733.814 299.628
Wh:2 St:4 Se:6 Sl:1 710.117 291.163
Wh:2 St:4 Se:6 Sl:3 733.617 299.562
Wh:2 St:4 Se:7 Sl:1 710.284 291.2
Wh:2 St:4 Se:7 Sl:3 733.784 299.602
Wh:2 St:4 Se:8 Sl:1 710.339 274.414
Wh:2 St:4 Se:8 Sl:3 733.839 282.821
Wh:2 St:4 Se:9 Sl:1 712.785 105.716
Wh:2 St:4 Se:9 Sl:3 736.285 105.723
Wh:2 St:4 Se:10 Sl:1 710.333 -9.72094
Wh:2 St:4 Se:10 Sl:3 733.833 -13.9299
Wh:2 St:4 Se:14 Sl:1 710.243 259.646
Wh:2 St:4 Se:14 Sl:3 733.743 263.836
Wh:2 St:4 Se:11 Sl:1 712.821 93.782
Wh:2 St:4 Se:11 Sl:3 736.321 93.78
Wh:2 St:4 Se:12 Sl:1 710.317 109.883
Wh:2 St:4 Se:12 Sl:3 733.817 101.478
